{
  "schedule": [
    {
      "duration": "00:01:00",
      "script": "G1",
      "concurrency": 1
    }
  ],
  "configuration": {
    "testname": "samples/HTTP/CavScenarioTours"
  },
  "scenario": {
    "GEN_LOCATION": {
      "_G": [
        []
      ]
    },
    "NS_GENERATOR": {
      "_G": [
        []
      ]
    },
    "NUM_USERS": {
      "_G": [
        []
      ]
    },
    "G_GET_NO_INLINED_OBJ": {
      "ALL": [
        [
          "1"
        ]
      ]
    },
    "G_NEW_USER_ON_SESSION": {
      "ALL": [
        [
          1,
          0,
          0
        ]
      ]
    },
    "G_OVERRIDE_RECORDED_THINK_TIME": {
      "ALL": [
        [
          "ALL",
          1
        ]
      ]
    },
    "SERVER_SELECT_MODE": {
      "_G": [
        [
          1
        ]
      ]
    },
    "G_FIRST_SESSION_PACING": {
      "ALL": [
        [
          0
        ]
      ]
    },
    "NH_SCENARIO": {
      "_G": [
        [],
        [],
        [],
        [],
        [],
        []
      ]
    },
    "ENABLE_ALERT": {
      "_G": [
        [
          "0"
        ]
      ]
    },
    "G_PAGE_THINK_TIME": {
      "ALL": [
        [
          "ALL",
          3,
          2000,
          5000
        ]
      ]
    },
    "G_DISABLE_ACCEPT_HEADER": {
      "ALL": [
        [
          "1"
        ]
      ]
    },
    "CHECK_GENERATOR_HEALTH": {
      "_G": [
        [
          "0"
        ]
      ]
    },
    "G_SESSION_PACING": {
      "ALL": [
        [
          "2",
          0,
          50000
        ]
      ]
    },
    "SCHEDULE": {
      "_G": [
        [
          "ALL",
          "Start",
          "START",
          "IMMEDIATELY"
        ],
        [
          "ALL",
          "RampUp",
          "RAMP_UP",
          "ALL",
          "RATE",
          "120",
          "M",
          "LINEARLY"
        ],
        [
          "ALL",
          "Stabilize",
          "STABILIZATION",
          "TIME",
          "0"
        ],
        [
          "ALL",
          "Duration",
          "DURATION",
          "SESSIONS",
          "1",
          "1"
        ],
        [
          "ALL",
          "RampDown",
          "RAMP_DOWN",
          "ALL",
          "IMMEDIATELY"
        ]
      ]
    },
    "TNAME": {
      "_G": [
        [
          "Cav_Tours_Scenario_Debug_Test"
        ]
      ]
    },
    "TARGET_RATE": {
      "_G": [
        []
      ]
    },
    "NS_GENERATOR_MODE": {
      "_G": [
        [
          ""
        ]
      ]
    },
    "G_TRACING": {
      "ALL": [
        [
          "0",
          "0",
          "0",
          "0",
          "0",
          "0"
        ]
      ]
    },
    "RUNTIME_USER_SESSION_PCT": {
      "_G": [
        []
      ]
    },
    "ADD_RECORDED_HOST": {
      "_G": []
    },
    "SCHEDULE_TYPE": {
      "_G": [
        [
          "SIMPLE"
        ]
      ]
    },
    "G_REPORTING": {
      "ALL": [
        [
          2,
          1,
          10,
          5
        ]
      ]
    },
    "GEN_SERVER_SETTING": {},
    "GEN_LOCATION_MODE": {
      "_G": [
        [
          "0"
        ]
      ]
    },
    "G_DISABLE_UA_HEADER": {
      "ALL": [
        [
          "1"
        ]
      ]
    },
    "DEFAULT_SERVER_LOCATION": {
      "_G": [
        [
          "SanFrancisco"
        ]
      ]
    },
    "G_RBU_HAR_SETTING": {
      "ALL": [
        [
          "1",
          "0",
          "0",
          "0",
          "0"
        ]
      ]
    },
    "DEBUG_TRACE": {
      "_G": [
        [
          "1"
        ]
      ]
    },
    "G_MODULEMASK": {
      "ALL": [
        [
          "HTTP"
        ]
      ]
    },
    "G_SCRIPT_RUNLOGIC": {
      "_G": [
        [
          "G1",
          "runlogic"
        ]
      ]
    },
    "SCHEDULE_BY": {
      "_G": [
        [
          "SCENARIO"
        ]
      ]
    },
    "G_DEBUG": {
      "ALL": [
        [
          "4"
        ]
      ]
    },
    "G_SERVER_HOST": {
      "ALL": [
        [
          "10.10.30.2:8080",
          "10.10.30.2:8080",
          "-"
        ]
      ]
    },
    "G_VUSER_TRACE": {
      "ALL": [
        [
          "2"
        ]
      ]
    },
    "SGRP": {
      "_G": [
        [
          "G1",
          "NA",
          "NA",
          "Internet",
          "0",
          "samples/HTTP/CavTours",
          "10",
          "",
          ""
        ]
      ]
    },
    "STYPE": {
      "_G": [
        [
          "FIX_CONCURRENT_USERS"
        ]
      ]
    },
    "G_CONTINUE_ON_PAGE_ERROR": {
      "ALL": [
        [
          "ALL",
          1
        ]
      ]
    },
    "G_TRACING_LIMIT": {
      "ALL": [
        [
          "1024",
          "10240"
        ]
      ]
    },
    "G_RBU": {
      "ALL": [
        [
          "ALL",
          "0",
          "1",
          "0",
          "1",
          "1",
          "0"
        ]
      ]
    },
    "G_LOGGING": {
      "ALL": [
        [
          "3",
          0
        ]
      ]
    },
    "PROF_PCT_MODE": {
      "_G": [
        [
          "NUM"
        ]
      ]
    },
    "G_STATIC_HOST": {
      "ALL": [
        [
          "localhost",
          "127.0.0.1"
        ]
      ]
    },
    "G_DISABLE_ACCEPT_ENC_HEADER": {
      "ALL": [
        [
          "1"
        ]
      ]
    }
  },
  "lastModifedBy": "cavisson",
  "scripts": {
    "G1": {
      "headers": {
        "Accept": "text/plain,application/json,text/html,application/javascript,application/xml",
        "User-Agent": "Mozilla/5.0 (Windows; U; Windows NT 6.0; de-DE) AppleWebKit/533.21.1 (KHTML, like Gecko) Version/5.0.5 Safari/533.21.1",
        "Accept-Encoding": " gzip, deflate, br, compress;q\u003d0.9"
      },
      "flows": {},
      "scriptType": "c",
      "genCapacity": 0,
      "order": 0
    }
  },
  "version": "1.0",
  "lastModifedTime": "26/05/2023 05:21:12",
  "info": "This is auto generated scenario configuration JSON created by UI. You should not manually edit this file as any syntax error may result in loss of complete configuration. If you make any changes, you must run following program to validate and convert to scenario file used for the running test: nsu_json_to_cav_script  -p \u003cproject\u003e/\u003csub-project\u003e/\u003cscenario_name\u003e -u \u003cusername\u003e -s \u003cwork space\u003e (e.g admin/system or \u003cusername\u003e/\u003cprofile\u003e)"
}